299140 173345 443
140262 467450 449
195765 92808 383
222608 571464 470
570765 278051 470
422773 602793 470
513707 474732 470
92616 703239 509
217098 258647 443
448179 758377 509
52884 63298 335
378251 714580 509
239584 39524 443
468279 468019 276
266982 746622 509
408644 715343 509
338317 648884 509
213053 620726 470
791007 306496 509
637152 760044 504
508550 596731 470
272222 400780 441
405722 351615 436
356715 616032 470
529502 99691 470
551262 410040 470
766066 434416 509
388143 165113 443
753520 694961 504
797330 758487 468
703741 377215 509
789930 716665 468
503161 607162 470
785687 306433 509
55579 582166 470
223155 772869 509
344404 80144 443
693943 715688 504
412689 403454 449
154458 34642 375
272505 455565 449
641867 439461 509
706952 232618 509
457638 790560 509
416233 558326 470
194872 124921 383
510697 248717 449
417596 703458 509
686454 262970 509
774524 574962 509
356061 578396 470
591479 696959 509
743375 78434 509
114580 514813 470
119049 376315 443
678174 28643 509
786470 201614 509
488 484904 449
785178 62281 509
577214 281628 470
733912 418847 509
773004 360043 509
128151 223564 386
445493 128125 449
594157 506003 470
229154 59888 386
159771 624100 470
702246 452132 509
193414 17876 383
150889 725907 509
710775 371994 509
294652 136790 443
143670 488379 449
378586 103854 443
483752 463884 413
738067 197929 509
206210 479965 449
146839 250941 443
13770 323240 443
421903 199446 449
757485 66982 509
374842 418472 449
568620 221177 470
505499 515206 470
145029 511407 449
668644 563061 509
431705 59495 449
537386 229110 470
685761 753435 504
631505 744218 504
376829 531740 470
375142 364851 392
523231 351555 470
440154 685558 509
393857 563268 470
179632 622589 470
482274 481554 382
344815 37678 443
100168 467360 449
620550 583721 447
271926 686646 509
508455 567645 470
644316 632457 416
487149 563874 470
422120 797804 509
669403 352977 509
298230 132297 443
147887 444828 449
412573 74447 449
24041 259194 443
658486 671803 442
611883 317271 470
125087 212838 383
53868 479653 449
379158 601152 470
391493 243639 441
136658 374664 443
135795 778522 509
743110 35590 509
201801 155808 383
269392 297822 407
55268 384380 443
662919 764464 504
52473 47360 309
422594 222597 449
92973 182595 383
383234 114583 443
560757 147154 470
759170 625464 509
445820 129556 449
775910 146933 509
713592 471085 509
333676 144224 443
589798 580496 434
97312 590487 470
702763 247842 509
398276 521328 470
117669 537548 470
57349 269544 443
223140 422674 449
229776 165231 386
192194 68273 383
741502 428538 509
604273 568436 434
371202 204295 443
484047 436115 444
163480 731844 509
127261 383368 443
797621 3041 509
338127 145027 443
152789 369280 443
491592 205372 449
392334 35965 443
166439 414169 449
109970 736287 509
367084 460059 449
500967 133179 449
86205 214358 383
658504 268504 509
647457 351078 509
665167 87102 509
320479 200595 443
653874 408661 509
221931 519837 470
332815 49994 443
645628 557262 509
706787 567860 509
489506 748353 509
462765 588331 470
784977 442059 509
709795 123190 509
710329 605561 509
582847 299845 470
247242 326418 407
362618 228419 443
180991 186220 334
301097 356811 441
318788 196582 443
259734 70996 443
223829 567689 470
590903 609125 403
532537 230242 470
504947 458918 444
309447 354138 441
353075 156337 443
747323 97925 509
263777 704743 509
423487 655027 509
773770 200574 509
590821 436016 470
431546 4578 449
382581 424694 449
603351 163736 470
475116 277047 449
706545 493404 509
46220 413212 449
465796 521419 470
161127 174353 352
318998 465978 449
628584 387811 509
150276 659380 509
194679 524270 470
126751 365461 443
54619 226051 386
462280 353419 449
529791 510656 470
657306 768153 504
469806 255718 449
247607 492208 449
208546 727272 509
782883 443547 509
699873 60293 509
45990 328738 443
174667 771082 509
144852 13368 375
261744 385351 441
521480 419991 470
753246 728506 424
56903 60632 317
301086 328465 384
651374 302519 509
484083 64936 449
84519 580123 470
484218 33210 449
550700 249991 470
324295 111740 443
70602 28268 340
580014 394451 470
632204 797979 504
483396 548014 470
414658 629625 509
695019 415395 509
640279 146206 509
128192 675222 509
532186 467334 470
570421 325030 470
11820 728658 509
18015 437447 449
486122 177424 449
680210 199284 509
256772 13339 443
216725 1086 386
576904 65382 470
33269 723608 509
142051 710830 509
92693 229461 386
395023 155366 443
422925 776684 509
310062 722442 509
508823 152695 449
436938 573096 470
243184 179407 443
75487 584309 470
251182 29590 443
485212 269971 449
516665 8446 470
368995 603447 470
59456 444838 449
124989 649401 509
141680 83949 354
181753 707825 509
223772 502991 449
668032 53697 509
32535 396718 443
694530 87415 509
722399 522576 509
769943 3650 509
239319 466225 449
696696 197921 509
466817 380932 449
569332 80081 470
569559 517114 452
57772 713908 509
555895 180823 470
152405 102132 375
